apb/wave.vcd
$date
	Tue Nov 11 18:32:41 2025
$end
$version
	Icarus Verilog
$end
$timescale
	1ps
$end
$scope module TB $end
$var wire 1 ! pslverr $end
$var wire 1 " pready $end
$var wire 32 # prdata [31:0] $end
$var parameter 32 $ p_device_offset $end
$var reg 32 % data_from_device [31:0] $end
$var reg 32 & paddr [31:0] $end
$var reg 1 ' pclk $end
$var reg 1 ( penable $end
$var reg 1 ) presetn $end
$var reg 1 * psel $end
$var reg 32 + pwdata [31:0] $end
$var reg 1 , pwrite $end
$scope module DUT $end
$var wire 32 - paddr [31:0] $end
$var wire 1 ' pclk $end
$var wire 1 ( penable $end
$var wire 1 ) presetn $end
$var wire 1 * psel $end
$var wire 32 . pwdata [31:0] $end
$var wire 1 , pwrite $end
$var reg 2 / apb_st [1:0] $end
$var reg 32 0 prdata [31:0] $end
$var reg 1 " pready $end
$var reg 1 ! pslverr $end
$var reg 32 1 reg_date [31:0] $end
$var reg 32 2 reg_name [31:0] $end
$var reg 32 3 reg_number [31:0] $end
$var reg 32 4 reg_surname [31:0] $end
$scope begin apb_r_en_st $end
$upscope $end
$scope begin apb_setup_st $end
$upscope $end
$scope begin apb_w_en_st $end
$upscope $end
$upscope $end
$scope task apb_read $end
$var reg 32 5 addr [31:0] $end
$var reg 32 6 data [31:0] $end
$upscope $end
$scope task apb_write $end
$var reg 32 7 addr [31:0] $end
$var reg 32 8 data [31:0] $end
$upscope $end
$upscope $end
$enddefinitions $end
$comment Show the parameter values. $end
$dumpall
b1110000000000000000000000000000 $
$end
#0
$dumpvars
bx 8
bx 7
bx 6
bx 5
bx 4
bx 3
bx 2
bx 1
bx 0
bx /
b0 .
b0 -
0,
b0 +
0*
1)
0(
0'
b0 &
bx %
bx #
x"
x!
$end
#10000
1!
1'
#20000
0'
#30000
1'
#40000
0'
#50000
1'
#60000
0'
#70000
1'
#80000
0'
#90000
b0 /
b0 2
b0 4
b0 1
b0 3
0"
0!
b0 #
b0 0
0)
1'
#100000
0'
#110000
1'
#120000
0'
#130000
1'
#140000
0'
#150000
1'
#160000
0'
#170000
1'
#180000
0'
#190000
1)
1'
#200000
0'
#210000
1'
#220000
0'
#230000
1'
#240000
0'
#250000
1'
#260000
0'
#270000
1'
#280000
0'
#290000
b10000 8
b1110000000000000000000000000000 7
1'
#300000
0'
#310000
1,
b10000 +
b10000 .
b1110000000000000000000000000000 &
b1110000000000000000000000000000 -
1*
1'
#320000
0'
#330000
b1 /
1(
1'
#340000
0'
#350000
b0 /
b10000 3
1"
1'
#360000
0'
#370000
0"
0,
0(
0*
1'
#380000
0'
#390000
b1110000000000000000000000000000 5
1'
#400000
0'
#410000
1*
1'
#420000
0'
#430000
b10 /
1(
1'
#440000
0'
#450000
b0 /
b10000 #
b10000 0
1"
1'
#460000
0'
#470000
0"
b0 #
b0 0
0(
0*
b10000 6
1'
#480000
0'
#490000
b10001000100010010000000100101 8
b1110000000000000000000000000100 7
b10000 %
1'
#500000
0'
#510000
1,
b10001000100010010000000100101 +
b10001000100010010000000100101 .
b1110000000000000000000000000100 &
b1110000000000000000000000000100 -
1*
1'
#520000
0'
#530000
b1 /
1(
1'
#540000
0'
#550000
b0 /
b10001000100010010000000100101 1
1"
1'
#560000
0'
#570000
0"
0,
0(
0*
1'
#580000
0'
#590000
b1110000000000000000000000000100 5
1'
#600000
0'
#610000
1*
1'
#620000
0'
#630000
b10 /
1(
1'
#640000
0'
#650000
b0 /
b10001000100010010000000100101 #
b10001000100010010000000100101 0
1"
1'
#660000
0'
#670000
0"
b0 #
b0 0
0(
0*
b10001000100010010000000100101 6
1'
#680000
0'
#690000
b1010000010001010101001001000101 8
b1110000000000000000000000001000 7
b10001000100010010000000100101 %
1'
#700000
0'
#710000
1,
b1010000010001010101001001000101 +
b1010000010001010101001001000101 .
b1110000000000000000000000001000 &
b1110000000000000000000000001000 -
1*
1'
#720000
0'
#730000
b1 /
1(
1'
#740000
0'
#750000
b0 /
b1010000010001010101001001000101 4
1"
1'
#760000
0'
#770000
0"
0,
0(
0*
1'
#780000
0'
#790000
b1110000000000000000000000001000 5
1'
#800000
0'
#810000
1*
1'
#820000
0'
#830000
b10 /
1(
1'
#840000
0'
#850000
b0 /
b1010000010001010101001001000101 #
b1010000010001010101001001000101 0
1"
1'
#860000
0'
#870000
0"
b0 #
b0 0
0(
0*
b1010000010001010101001001000101 6
1'
#880000
0'
#890000
b1010011010101000100010101010000 8
b1110000000000000000000000001100 7
b1010000010001010101001001000101 %
1'
#900000
0'
#910000
1,
b1010011010101000100010101010000 +
b1010011010101000100010101010000 .
b1110000000000000000000000001100 &
b1110000000000000000000000001100 -
1*
1'
#920000
0'
#930000
b1 /
1(
1'
#940000
0'
#950000
b0 /
b1010011010101000100010101010000 2
1"
1'
#960000
0'
#970000
0"
0,
0(
0*
1'
#980000
0'
#990000
b1110000000000000000000000001100 5
1'
#1000000
0'
#1010000
1*
1'
#1020000
0'
#1030000
b10 /
1(
1'
#1040000
0'
#1050000
b0 /
b1010011010101000100010101010000 #
b1010011010101000100010101010000 0
1"
1'
#1060000
0'
#1070000
0"
b0 #
b0 0
0(
0*
b1010011010101000100010101010000 6
1'
#1080000
0'
#1090000
b1010011010101000100010101010000 %
1'
